<svg width="15" height="18" viewBox="0 0 15 18" fill="none" xmlns="http://www.w3.org/2000/svg">
<path d="M7.74085 9.64285C9.10377 9.64285 10.2086 8.56437 10.2086 7.23399C10.2086 5.90361 9.10377 4.82512 7.74085 4.82512C6.37793 4.82512 5.27307 5.90361 5.27307 7.23399C5.27307 8.56437 6.37793 9.64285 7.74085 9.64285Z" stroke="#4F74F6" stroke-width="1.5" stroke-linecap="round" stroke-linejoin="round"/>
<path d="M13.9103 7.23399C13.9103 12.6539 7.74086 16.8695 7.74086 16.8695C7.74086 16.8695 1.57141 12.6539 1.57141 7.23399C1.57141 5.63681 2.2214 4.10505 3.3784 2.97567C4.5354 1.8463 6.10462 1.21182 7.74086 1.21182C9.3771 1.21182 10.9463 1.8463 12.1033 2.97567C13.2603 4.10505 13.9103 5.63681 13.9103 7.23399V7.23399Z" stroke="#4F74F6" stroke-width="1.5" stroke-linecap="round" stroke-linejoin="round"/>
</svg>
